{
  "base": "7.3.0",
  "conda": "7.3.0",
  "coverage": "7.3.0",
  "data": "7.3.0",
  "doc": "7.3.0",
  "git": "7.3.0",
  "gitlab": "7.3.0",
  "glabbase": "4.1.0",
  "glabdata": "4.1.0",
  "glabpkg": "4.1.0",
  "glabpkg_dev": "4.1.0",
  "license": "7.3.0",
  "pypi": "7.3.0",
  "pyproject": "7.3.0",
  "reqs": "7.3.0",
  "sphinx": "7.3.0",
  "src": "7.3.0",
  "test": "7.3.0",
  "version": "7.3.0"
}